<svg xmlns="http://www.w3.org/2000/svg" viewBox="0 0 512 512">
  <path d="M207.655 22.949c8.776 3.11 19.04 11.16 19.01 20.474-.275 81.483 2.223 175.434.73 266.88-.397 15.666-8.13 58.216-27.054 66.538-12.314 7.767-32.519-7.706-25.224-30.708 9.048-30.236 33.244-82.492 19.377-135.999-101.828-21.853-67.714 123.628-68.001 172.759-.306 22.703-1.096 48.96-6.58 67.797-9.045 30.134-26.971 57.29-63.614 59.225-16.834.454-38.948-16.857-38.54-37.599.53-20.787 17.454-15.05 21.725-57.452.692-56.455 1.46-172.559 1.46-172.559s5.442-66.909 24.131-92.863c20.901-29.015 48.87-58.114 92.002-58.492 14.664-.007 40.339 11.698 40.339 11.698s-.087-57.62 0-78.236c.015-3.447 6.988-2.612 10.239-1.463zm-36.813 102.164c-63.666.484-96.892 60.537-100.26 125.379-12.083 66.784.609 195.515-17.93 218.91 25.667 11.048 46.435-36.994 44.21-114.421-4.411-46.11-14.62-101.076 18.614-159.761 20.22-26.634 50.842-32.338 81.687-16.547l-.518-46.84c-6.055-5.302-15.912-6.791-25.8-6.72zm133.504-102.16c-8.78 3.106-19.041 11.157-19.01 20.47.275 81.483-2.223 175.43-.734 266.88.4 15.666 8.134 58.216 27.058 66.538 12.313 7.767 32.519-7.706 25.224-30.708-9.048-30.236-33.245-82.492-19.377-135.999 101.828-21.853 67.71 123.628 68 172.759.307 22.703 1.097 48.96 6.577 67.797 9.048 30.134 26.975 57.29 63.617 59.225 16.83.454 38.948-16.857 38.536-37.599-.521-20.787-17.45-15.05-21.72-57.452-.692-56.455-1.463-172.559-1.463-172.559s-5.439-66.909-24.129-92.863c-20.9-29.015-48.869-58.114-92.001-58.492-14.665-.007-40.339 11.698-40.339 11.698s.083-57.62 0-78.236c-.015-3.447-6.992-2.612-10.239-1.463zm36.81 102.16c63.665.484 96.891 60.537 100.263 125.379 12.079 66.784-.609 195.515 17.93 218.91-25.671 11.048-46.436-36.994-44.21-114.421 4.411-46.11 14.62-101.076-18.614-159.761-20.22-26.634-50.846-32.338-81.687-16.547l.514-46.84c6.059-5.302 15.912-6.791 25.803-6.72zM243.585 6.217c-.007-3.383 4.66-6.33 8.05-6.214 6.728.238 14.953 6.717 15.059 13.44 2.101 132.685 2.154 326.212 1.096 492.45-.03 4.914-8.716 6.853-13.527 5.851-5.065-1.054-10.62-6.16-10.602-11.335.503-155.282.454-342.663-.068-494.192z" fill="#666"/>
</svg>
